{
	"status": "ready",
	"context": {
		"link": "/",
		"attr": "",
		"class": "u-bg-yellow",
		"modifier": "",
		"text": "Kategori"
	},
	"variants": [
		{
			"name": "Tag - small",
			"context": {
				"link": "/",
				"attr": "",
				"class": "",
				"modifier": " a-tag--small",
				"text": "Kategori"
			}
		},
		{
			"name": "Tag - different background color",
			"context": {
				"link": "/",
				"attr": "",
				"class": "u-bg-navy",
				"modifier": "",
				"text": "Kategori"
			}
		}
	],
	"notes": "All tag backgrounds can be changed by using utility classes for backgrounds '.u-bg-color-name'"
}
