{
	"status": "ready",
	"context": {
		"quote": {
			"quote": "Donec id elit non mi porta gravida at eget metus."
		},
		"name": "Firstname Lastname"
	},
	"notes": "<p>This block should always be wrapped in a `u-container u-container--narrow`, to avoid too wide paragraphs.</p><p>You can change background by adding a background utility class on the parent wrapper.</p>"
}
