{
	"status": "ready",
	"context": {
		"class": "a-logo",
		"icon": "flp-logo"
	},
	"variants": [
		{
			"name": "Logo - small",
			"context": {
				"class": "a-logo",
				"modifier": " a-logo--small",
				"icon": "flp-logo"
			}
		},
		{
			"name": "Logo - wide",
			"context": {
				"class": "a-logo",
				"modifier": " a-logo--wide",
				"icon": "flp-logo-text"
			}
		}
	]
}
