{
	"status": "ready",
	"context": {
		"menuIconData": {
			"class": "",
			"modifier": "a-icon--small",
			"icon": "icon-menu",
			"alt": ""
		},
		"newsIconData": {
			"class": "",
			"modifier": "a-icon--small",
			"icon": "icon-news",
			"alt": ""
		},
		"userIconData": {
			"class": "",
			"modifier": "a-icon--small",
			"icon": "icon-user",
			"alt": ""
		},
		"searchIconData": {
			"class": "",
			"modifier": "a-icon--small",
			"icon": "icon-search",
			"alt": ""
		},
		"toggleIconData": {
			"class": "",
			"modifier": " a-icon--small",
			"icon": "icon-down",
			"alt": ""
		},
		"fieldData": {
			"type": "search",
			"class": " m-form__search",
			"id": "search",
			"required": "",
			"maxLength": "",
			"placeholder": "Sök..."
		},
		"languageMenu": [
			{
				"link": "/",
				"name": "Danmark"
			},
			{
				"link": "/",
				"name": "Suomi"
			},
			{
				"link": "/",
				"name": "Norge"
			},
			{
				"link": "/",
				"name": "Finland (svenska)"
			},
			{
				"link": "/",
				"name": "Finland (svenska)"
			},
			{
				"link": "/",
				"name": "Grønland &amp; Færøerne"
			},
			{
				"link": "/",
				"name": "Svalbard og Jan Mayen"
			},
			{
				"link": "/",
				"name": "Åland"
			}
		]
	}
}
