{
	"status": "ready",
	"context": {
		"image": {
			"image": "placeholder-1.jpg",
			"class": "m-category__img"
		},
		"headline": {
			"text": "Lorem ipsum dolore",
			"class": "m-category__title"
		},
		"paragraph": {
			"text": "Lorem ipsum dolore",
			"class": "m-category__desc"
		}
	}
}
