{
	"status": "ready",
	"context": {
		"items": [
			{
				"text": "Euismod Tellus Ullamcorper"
			},
			{
				"text": "Sit Fringilla Elit Pharetra Porta"
			},
			{
				"text": "Cras justo odio, dapibus ac facilisis in"
			}
		]
	}
}
