{
	"status": "ready",
	"context": {
		"contentTeaser": [
			{
				"type": "",
				"heading": {
					"text": "Vulputate Pharetra Dolor Risus"
				},
				"teaser": {
					"text": "Donec id elit non mi porta gravida at eget metus. Maecenas faucibus mollis interdum. Cras justo odio, dapibus ac facilisis in, egestas eget quam."
				},
				"link": {
					"text": "Läs mer om jobbet",
					"path": "/"
				},
				"imageData": ""
			},
			{
				"type": "",
				"heading": {
					"text": "Amet Risus Pharetra"
				},
				"teaser": {
					"text": "Fusce dapibus, tellus ac cursus commodo, tortor mauris condimentum nibh, ut fermentum massa justo sit amet risus. Maecenas faucibus mollis interdum. Lorem ipsum dolor sit amet."
				},
				"link": {
					"text": "Läs mer om jobbet",
					"path": "/"
				},
				"imageData": ""
			},
			{
				"type": "",
				"heading": {
					"text": "Vivamus sagittis lacus vel augue laoreet rutrum faucibus dolor auctor."
				},
				"teaser": {
					"text": "Nullam id dolor id nibh ultricies vehicula ut id elit. Lorem ipsum dolor sit amet, consectetur adipiscing elit. Donec id elit non mi porta gravida at eget metus. Integer posuere erat a ante venenatis dapibus posuere velit aliquet."
				},
				"link": {
					"text": "Läs mer om jobbet",
					"path": "/"
				},
				"imageData": ""
			}
		]
	}
}
