{
	"status": "ready",
	"context": {
		"modifier": "",
		"feedback": "Approved"
	},
	"variants": [
		{
			"name": "Feedback - warning",
			"context": {
				"modifier": " a-feedback--warning",
				"feedback": "Warning"
			}
		},
		{
			"name": "Feedback - error",
			"context": {
				"modifier": " a-feedback--error",
				"feedback": "Error"
			}
		}
	]
}
